C:\Users\INTI0336\Documents\workspace\presto\src\main\java\fr\presto\servlet\ServletPlat.java
C:\Users\INTI0336\Documents\workspace\presto\src\main\java\fr\presto\servlet\ValidationPlat.java
C:\Users\INTI0336\Documents\workspace\presto\src\main\java\fr\presto\crud\PlatCRUD.java
C:\Users\INTI0336\Documents\workspace\presto\src\main\java\fr\presto\models\Plats.java
C:\Users\INTI0336\Documents\workspace\presto\src\main\java\fr\presto\presto\App.java
C:\Users\INTI0336\Documents\workspace\presto\src\main\java\fr\presto\DAO\PlatsDAO.java
